%YAML 1.1
%TAG !u! tag:unity3d.com,2011:
--- !u!29 &1
OcclusionCullingSettings:
  m_ObjectHideFlags: 0
  serializedVersion: 2
  m_OcclusionBakeSettings:
    smallestOccluder: 5
    smallestHole: 0.25
    backfaceThreshold: 100
  m_SceneGUID: 00000000000000000000000000000000
  m_OcclusionCullingData: {fileID: 0}
--- !u!104 &2
RenderSettings:
  m_ObjectHideFlags: 0
  serializedVersion: 7
  m_Fog: 0
  m_FogColor: {r: 0.5, g: 0.5, b: 0.5, a: 1}
  m_FogMode: 3
  m_FogDensity: 0.01
  m_LinearFogStart: 0
  m_LinearFogEnd: 300
  m_AmbientSkyColor: {r: 0.2, g: 0.2, b: 0.2, a: 1}
  m_AmbientEquatorColor: {r: 0.2, g: 0.2, b: 0.2, a: 1}
  m_AmbientGroundColor: {r: 0.2, g: 0.2, b: 0.2, a: 1}
  m_AmbientIntensity: 1
  m_AmbientMode: 3
  m_SkyboxMaterial: {fileID: 0}
  m_HaloStrength: 0.5
  m_FlareStrength: 1
  m_FlareFadeSpeed: 3
  m_HaloTexture: {fileID: 0}
  m_SpotCookie: {fileID: 10001, guid: 0000000000000000e000000000000000, type: 0}
  m_DefaultReflectionMode: 0
  m_DefaultReflectionResolution: 128
  m_ReflectionBounces: 1
  m_ReflectionIntensity: 1
  m_CustomReflection: {fileID: 0}
  m_Sun: {fileID: 0}
  m_IndirectSpecularColor: {r: 0, g: 0, b: 0, a: 1}
--- !u!157 &4
LightmapSettings:
  m_ObjectHideFlags: 0
  serializedVersion: 7
  m_GIWorkflowMode: 1
  m_GISettings:
    serializedVersion: 2
    m_BounceScale: 1
    m_IndirectOutputScale: 1
    m_AlbedoBoost: 1
    m_TemporalCoherenceThreshold: 1
    m_EnvironmentLightingMode: 0
    m_EnableBakedLightmaps: 1
    m_EnableRealtimeLightmaps: 0
  m_LightmapEditorSettings:
    serializedVersion: 4
    m_Resolution: 1
    m_BakeResolution: 50
    m_TextureWidth: 1024
    m_TextureHeight: 1024
    m_AO: 1
    m_AOMaxDistance: 1
    m_CompAOExponent: 1
    m_CompAOExponentDirect: 0
    m_Padding: 2
    m_LightmapParameters: {fileID: 0}
    m_LightmapsBakeMode: 1
    m_TextureCompression: 0
    m_DirectLightInLightProbes: 1
    m_FinalGather: 0
    m_FinalGatherFiltering: 1
    m_FinalGatherRayCount: 256
    m_ReflectionCompression: 2
  m_LightingDataAsset: {fileID: 0}
  m_RuntimeCPUUsage: 25
--- !u!196 &5
NavMeshSettings:
  serializedVersion: 2
  m_ObjectHideFlags: 0
  m_BuildSettings:
    serializedVersion: 2
    agentTypeID: 0
    agentRadius: 0.5
    agentHeight: 2
    agentSlope: 45
    agentClimb: 0.4
    ledgeDropHeight: 0
    maxJumpAcrossDistance: 0
    minRegionArea: 2
    manualCellSize: 0
    cellSize: 0.16666666
    accuratePlacement: 0
  m_NavMeshData: {fileID: 0}
--- !u!1 &39437999
GameObject:
  m_ObjectHideFlags: 0
  m_PrefabParentObject: {fileID: 0}
  m_PrefabInternal: {fileID: 0}
  serializedVersion: 5
  m_Component:
  - component: {fileID: 39438004}
  - component: {fileID: 39438003}
  - component: {fileID: 39438002}
  - component: {fileID: 39438001}
  - component: {fileID: 39438000}
  m_Layer: 0
  m_Name: Main Camera
  m_TagString: MainCamera
  m_Icon: {fileID: 0}
  m_NavMeshLayer: 0
  m_StaticEditorFlags: 0
  m_IsActive: 1
--- !u!81 &39438000
AudioListener:
  m_ObjectHideFlags: 0
  m_PrefabParentObject: {fileID: 0}
  m_PrefabInternal: {fileID: 0}
  m_GameObject: {fileID: 39437999}
  m_Enabled: 1
--- !u!124 &39438001
Behaviour:
  m_ObjectHideFlags: 0
  m_PrefabParentObject: {fileID: 0}
  m_PrefabInternal: {fileID: 0}
  m_GameObject: {fileID: 39437999}
  m_Enabled: 1
--- !u!92 &39438002
Behaviour:
  m_ObjectHideFlags: 0
  m_PrefabParentObject: {fileID: 0}
  m_PrefabInternal: {fileID: 0}
  m_GameObject: {fileID: 39437999}
  m_Enabled: 1
--- !u!20 &39438003
Camera:
  m_ObjectHideFlags: 0
  m_PrefabParentObject: {fileID: 0}
  m_PrefabInternal: {fileID: 0}
  m_GameObject: {fileID: 39437999}
  m_Enabled: 1
  serializedVersion: 2
  m_ClearFlags: 1
  m_BackGroundColor: {r: 0.27205884, g: 0.27205884, b: 0.27205884, a: 0.019607844}
  m_NormalizedViewPortRect:
    serializedVersion: 2
    x: 0
    y: 0
    width: 1
    height: 1
  near clip plane: 0.3
  far clip plane: 1000
  field of view: 60
  orthographic: 0
  orthographic size: 5
  m_Depth: -1
  m_CullingMask:
    serializedVersion: 2
    m_Bits: 4294967295
  m_RenderingPath: -1
  m_TargetTexture: {fileID: 0}
  m_TargetDisplay: 0
  m_TargetEye: 3
  m_HDR: 0
  m_OcclusionCulling: 1
  m_StereoConvergence: 10
  m_StereoSeparation: 0.022
  m_StereoMirrorMode: 0
--- !u!4 &39438004
Transform:
  m_ObjectHideFlags: 0
  m_PrefabParentObject: {fileID: 0}
  m_PrefabInternal: {fileID: 0}
  m_GameObject: {fileID: 39437999}
  m_LocalRotation: {x: 0.37194288, y: -0.38965598, z: 0.17589726, w: 0.823946}
  m_LocalPosition: {x: 0.1144, y: -2.1593, z: 1.7629}
  m_LocalScale: {x: 1, y: 1, z: 1}
  m_Children: []
  m_Father: {fileID: 0}
  m_RootOrder: 1
  m_LocalEulerAnglesHint: {x: 0, y: 0, z: 0}
--- !u!1 &160470642
GameObject:
  m_ObjectHideFlags: 0
  m_PrefabParentObject: {fileID: 100000, guid: ed9fec1f563299440a87ef1950fd5cca, type: 2}
  m_PrefabInternal: {fileID: 2000699286}
  serializedVersion: 5
  m_Component:
  - component: {fileID: 160470646}
  - component: {fileID: 160470645}
  - component: {fileID: 160470644}
  - component: {fileID: 160470643}
  m_Layer: 0
  m_Name: Mag
  m_TagString: Untagged
  m_Icon: {fileID: 0}
  m_NavMeshLayer: 0
  m_StaticEditorFlags: 0
  m_IsActive: 1
--- !u!65 &160470643
BoxCollider:
  m_ObjectHideFlags: 0
  m_PrefabParentObject: {fileID: 6500000, guid: ed9fec1f563299440a87ef1950fd5cca,
    type: 2}
  m_PrefabInternal: {fileID: 2000699286}
  m_GameObject: {fileID: 160470642}
  m_Material: {fileID: 0}
  m_IsTrigger: 0
  m_Enabled: 1
  serializedVersion: 2
  m_Size: {x: 0.9640658, y: 2.7713847, z: 0.6029179}
  m_Center: {x: -0.14658491, y: 0.3734483, z: 0}
--- !u!23 &160470644
MeshRenderer:
  m_ObjectHideFlags: 0
  m_PrefabParentObject: {fileID: 2300000, guid: ed9fec1f563299440a87ef1950fd5cca,
    type: 2}
  m_PrefabInternal: {fileID: 2000699286}
  m_GameObject: {fileID: 160470642}
  m_Enabled: 1
  m_CastShadows: 1
  m_ReceiveShadows: 1
  m_MotionVectors: 1
  m_LightProbeUsage: 0
  m_ReflectionProbeUsage: 1
  m_Materials:
  - {fileID: 2100000, guid: f558cd4a4d512ed4f8a9e92a44380ed4, type: 2}
  m_StaticBatchInfo:
    firstSubMesh: 0
    subMeshCount: 0
  m_StaticBatchRoot: {fileID: 0}
  m_ProbeAnchor: {fileID: 0}
  m_LightProbeVolumeOverride: {fileID: 0}
  m_ScaleInLightmap: 1
  m_PreserveUVs: 0
  m_IgnoreNormalsForChartDetection: 0
  m_ImportantGI: 0
  m_SelectedEditorRenderState: 3
  m_MinimumChartSize: 4
  m_AutoUVMaxDistance: 0.5
  m_AutoUVMaxAngle: 89
  m_LightmapParameters: {fileID: 0}
  m_SortingLayerID: 0
  m_SortingOrder: 0
--- !u!33 &160470645
MeshFilter:
  m_ObjectHideFlags: 0
  m_PrefabParentObject: {fileID: 3300000, guid: ed9fec1f563299440a87ef1950fd5cca,
    type: 2}
  m_PrefabInternal: {fileID: 2000699286}
  m_GameObject: {fileID: 160470642}
  m_Mesh: {fileID: 4300000, guid: 3fbfd3fee962bd145939f51dc483b99c, type: 3}
--- !u!4 &160470646
Transform:
  m_ObjectHideFlags: 0
  m_PrefabParentObject: {fileID: 400000, guid: ed9fec1f563299440a87ef1950fd5cca, type: 2}
  m_PrefabInternal: {fileID: 2000699286}
  m_GameObject: {fileID: 160470642}
  m_LocalRotation: {x: -0.2539262, y: 0.65994054, z: 0.65994054, w: 0.2539262}
  m_LocalPosition: {x: -0.14325994, y: -2.6362, z: 0.1832}
  m_LocalScale: {x: 0.088073745, y: 0.088073745, z: 0.08807375}
  m_Children: []
  m_Father: {fileID: 1459427703}
  m_RootOrder: 1
  m_LocalEulerAnglesHint: {x: 0, y: 0, z: 0}
--- !u!1 &228258666
GameObject:
  m_ObjectHideFlags: 0
  m_PrefabParentObject: {fileID: 0}
  m_PrefabInternal: {fileID: 0}
  serializedVersion: 5
  m_Component:
  - component: {fileID: 228258668}
  - component: {fileID: 228258667}
  m_Layer: 0
  m_Name: Directional light
  m_TagString: Untagged
  m_Icon: {fileID: 0}
  m_NavMeshLayer: 0
  m_StaticEditorFlags: 0
  m_IsActive: 1
--- !u!108 &228258667
Light:
  m_ObjectHideFlags: 0
  m_PrefabParentObject: {fileID: 0}
  m_PrefabInternal: {fileID: 0}
  m_GameObject: {fileID: 228258666}
  m_Enabled: 1
  serializedVersion: 7
  m_Type: 1
  m_Color: {r: 1, g: 1, b: 1, a: 1}
  m_Intensity: 0.66518503
  m_Range: 10
  m_SpotAngle: 30
  m_CookieSize: 10
  m_Shadows:
    m_Type: 2
    m_Resolution: -1
    m_CustomResolution: -1
    m_Strength: 1
    m_Bias: 0.05
    m_NormalBias: 0.4
    m_NearPlane: 0.2
  m_Cookie: {fileID: 0}
  m_DrawHalo: 0
  m_Flare: {fileID: 0}
  m_RenderMode: 0
  m_CullingMask:
    serializedVersion: 2
    m_Bits: 4294967295
  m_Lightmapping: 1
  m_AreaSize: {x: 1, y: 1}
  m_BounceIntensity: 1
  m_ShadowRadius: 0
  m_ShadowAngle: 0
--- !u!4 &228258668
Transform:
  m_ObjectHideFlags: 0
  m_PrefabParentObject: {fileID: 0}
  m_PrefabInternal: {fileID: 0}
  m_GameObject: {fileID: 228258666}
  m_LocalRotation: {x: 0.40821794, y: -0.23456973, z: 0.10938166, w: 0.8754261}
  m_LocalPosition: {x: -1.3737, y: -1.7373, z: 2.9727}
  m_LocalScale: {x: 1, y: 1, z: 1}
  m_Children: []
  m_Father: {fileID: 0}
  m_RootOrder: 4
  m_LocalEulerAnglesHint: {x: 0, y: 0, z: 0}
--- !u!1001 &293702787
Prefab:
  m_ObjectHideFlags: 0
  serializedVersion: 2
  m_Modification:
    m_TransformParent: {fileID: 1459427703}
    m_Modifications:
    - target: {fileID: 400000, guid: 52cf2a42de425c04dbad2326efa3be14, type: 2}
      propertyPath: m_LocalPosition.x
      value: -.604989946
      objectReference: {fileID: 0}
    - target: {fileID: 400000, guid: 52cf2a42de425c04dbad2326efa3be14, type: 2}
      propertyPath: m_LocalPosition.y
      value: -2.59789991
      objectReference: {fileID: 0}
    - target: {fileID: 400000, guid: 52cf2a42de425c04dbad2326efa3be14, type: 2}
      propertyPath: m_LocalPosition.z
      value: .251000047
      objectReference: {fileID: 0}
    - target: {fileID: 400000, guid: 52cf2a42de425c04dbad2326efa3be14, type: 2}
      propertyPath: m_LocalRotation.x
      value: 0
      objectReference: {fileID: 0}
    - target: {fileID: 400000, guid: 52cf2a42de425c04dbad2326efa3be14, type: 2}
      propertyPath: m_LocalRotation.y
      value: 0
      objectReference: {fileID: 0}
    - target: {fileID: 400000, guid: 52cf2a42de425c04dbad2326efa3be14, type: 2}
      propertyPath: m_LocalRotation.z
      value: 0
      objectReference: {fileID: 0}
    - target: {fileID: 400000, guid: 52cf2a42de425c04dbad2326efa3be14, type: 2}
      propertyPath: m_LocalRotation.w
      value: 1
      objectReference: {fileID: 0}
    - target: {fileID: 400000, guid: 52cf2a42de425c04dbad2326efa3be14, type: 2}
      propertyPath: m_RootOrder
      value: 7
      objectReference: {fileID: 0}
    m_RemovedComponents: []
  m_ParentPrefab: {fileID: 100100000, guid: 52cf2a42de425c04dbad2326efa3be14, type: 2}
  m_RootGameObject: {fileID: 822106256}
  m_IsPrefabParent: 0
--- !u!1001 &670056561
Prefab:
  m_ObjectHideFlags: 0
  serializedVersion: 2
  m_Modification:
    m_TransformParent: {fileID: 1459427703}
    m_Modifications:
    - target: {fileID: 400000, guid: bfb0c990155e78140881fa17aa905626, type: 2}
      propertyPath: m_LocalPosition.x
      value: -.150269985
      objectReference: {fileID: 0}
    - target: {fileID: 400000, guid: bfb0c990155e78140881fa17aa905626, type: 2}
      propertyPath: m_LocalPosition.y
      value: -2.61470008
      objectReference: {fileID: 0}
    - target: {fileID: 400000, guid: bfb0c990155e78140881fa17aa905626, type: 2}
      propertyPath: m_LocalPosition.z
      value: 1.07159996
      objectReference: {fileID: 0}
    - target: {fileID: 400000, guid: bfb0c990155e78140881fa17aa905626, type: 2}
      propertyPath: m_LocalRotation.x
      value: -.137524188
      objectReference: {fileID: 0}
    - target: {fileID: 400000, guid: bfb0c990155e78140881fa17aa905626, type: 2}
      propertyPath: m_LocalRotation.y
      value: -.13831532
      objectReference: {fileID: 0}
    - target: {fileID: 400000, guid: bfb0c990155e78140881fa17aa905626, type: 2}
      propertyPath: m_LocalRotation.z
      value: .691533923
      objectReference: {fileID: 0}
    - target: {fileID: 400000, guid: bfb0c990155e78140881fa17aa905626, type: 2}
      propertyPath: m_LocalRotation.w
      value: .695511997
      objectReference: {fileID: 0}
    - target: {fileID: 400000, guid: bfb0c990155e78140881fa17aa905626, type: 2}
      propertyPath: m_RootOrder
      value: 6
      objectReference: {fileID: 0}
    - target: {fileID: 400000, guid: bfb0c990155e78140881fa17aa905626, type: 2}
      propertyPath: m_LocalScale.y
      value: .48487252
      objectReference: {fileID: 0}
    - target: {fileID: 400000, guid: bfb0c990155e78140881fa17aa905626, type: 2}
      propertyPath: m_LocalScale.z
      value: .48487258
      objectReference: {fileID: 0}
    m_RemovedComponents: []
  m_ParentPrefab: {fileID: 100100000, guid: bfb0c990155e78140881fa17aa905626, type: 2}
  m_RootGameObject: {fileID: 2073273086}
  m_IsPrefabParent: 0
--- !u!1 &683659944
GameObject:
  m_ObjectHideFlags: 0
  m_PrefabParentObject: {fileID: 100000, guid: d44172cf417e1fa478d4f94775a5c35e, type: 2}
  m_PrefabInternal: {fileID: 1733017002}
  serializedVersion: 5
  m_Component:
  - component: {fileID: 683659948}
  - component: {fileID: 683659947}
  - component: {fileID: 683659946}
  - component: {fileID: 683659945}
  m_Layer: 0
  m_Name: Silencer
  m_TagString: Untagged
  m_Icon: {fileID: 0}
  m_NavMeshLayer: 0
  m_StaticEditorFlags: 0
  m_IsActive: 1
--- !u!65 &683659945
BoxCollider:
  m_ObjectHideFlags: 0
  m_PrefabParentObject: {fileID: 6500000, guid: d44172cf417e1fa478d4f94775a5c35e,
    type: 2}
  m_PrefabInternal: {fileID: 1733017002}
  m_GameObject: {fileID: 683659944}
  m_Material: {fileID: 0}
  m_IsTrigger: 0
  m_Enabled: 1
  serializedVersion: 2
  m_Size: {x: 0.9504844, y: 0.9749279, z: 4.0974154}
  m_Center: {x: -0.024757788, y: 0, z: 0.098707736}
--- !u!23 &683659946
MeshRenderer:
  m_ObjectHideFlags: 0
  m_PrefabParentObject: {fileID: 2300000, guid: d44172cf417e1fa478d4f94775a5c35e,
    type: 2}
  m_PrefabInternal: {fileID: 1733017002}
  m_GameObject: {fileID: 683659944}
  m_Enabled: 1
  m_CastShadows: 1
  m_ReceiveShadows: 1
  m_MotionVectors: 1
  m_LightProbeUsage: 0
  m_ReflectionProbeUsage: 1
  m_Materials:
  - {fileID: 2100000, guid: b6e371fd719b84f46b02c7fd9d32dd43, type: 2}
  m_StaticBatchInfo:
    firstSubMesh: 0
    subMeshCount: 0
  m_StaticBatchRoot: {fileID: 0}
  m_ProbeAnchor: {fileID: 0}
  m_LightProbeVolumeOverride: {fileID: 0}
  m_ScaleInLightmap: 1
  m_PreserveUVs: 0
  m_IgnoreNormalsForChartDetection: 0
  m_ImportantGI: 0
  m_SelectedEditorRenderState: 3
  m_MinimumChartSize: 4
  m_AutoUVMaxDistance: 0.5
  m_AutoUVMaxAngle: 89
  m_LightmapParameters: {fileID: 0}
  m_SortingLayerID: 0
  m_SortingOrder: 0
--- !u!33 &683659947
MeshFilter:
  m_ObjectHideFlags: 0
  m_PrefabParentObject: {fileID: 3300000, guid: d44172cf417e1fa478d4f94775a5c35e,
    type: 2}
  m_PrefabInternal: {fileID: 1733017002}
  m_GameObject: {fileID: 683659944}
  m_Mesh: {fileID: 4300000, guid: b7c033130cd651f4693f0ac44d631c76, type: 3}
--- !u!4 &683659948
Transform:
  m_ObjectHideFlags: 0
  m_PrefabParentObject: {fileID: 400000, guid: d44172cf417e1fa478d4f94775a5c35e, type: 2}
  m_PrefabInternal: {fileID: 1733017002}
  m_GameObject: {fileID: 683659944}
  m_LocalRotation: {x: 0, y: 0, z: 0, w: 1}
  m_LocalPosition: {x: 0.27855003, y: -2.6229, z: 0.79820013}
  m_LocalScale: {x: 0.09425562, y: 0.09425562, z: 0.09425562}
  m_Children: []
  m_Father: {fileID: 1459427703}
  m_RootOrder: 0
  m_LocalEulerAnglesHint: {x: 0, y: 0, z: 0}
--- !u!1 &822106256
GameObject:
  m_ObjectHideFlags: 0
  m_PrefabParentObject: {fileID: 100000, guid: 52cf2a42de425c04dbad2326efa3be14, type: 2}
  m_PrefabInternal: {fileID: 293702787}
  serializedVersion: 5
  m_Component:
  - component: {fileID: 822106260}
  - component: {fileID: 822106259}
  - component: {fileID: 822106258}
  - component: {fileID: 822106257}
  m_Layer: 0
  m_Name: FirstAid
  m_TagString: Untagged
  m_Icon: {fileID: 0}
  m_NavMeshLayer: 0
  m_StaticEditorFlags: 0
  m_IsActive: 1
--- !u!65 &822106257
BoxCollider:
  m_ObjectHideFlags: 0
  m_PrefabParentObject: {fileID: 6500000, guid: 52cf2a42de425c04dbad2326efa3be14,
    type: 2}
  m_PrefabInternal: {fileID: 293702787}
  m_GameObject: {fileID: 822106256}
  m_Material: {fileID: 0}
  m_IsTrigger: 0
  m_Enabled: 1
  serializedVersion: 2
  m_Size: {x: 2, y: 0.4458525, z: 1.7462816}
  m_Center: {x: 0, y: 0, z: 0.52738464}
--- !u!23 &822106258
MeshRenderer:
  m_ObjectHideFlags: 0
  m_PrefabParentObject: {fileID: 2300000, guid: 52cf2a42de425c04dbad2326efa3be14,
    type: 2}
  m_PrefabInternal: {fileID: 293702787}
  m_GameObject: {fileID: 822106256}
  m_Enabled: 1
  m_CastShadows: 1
  m_ReceiveShadows: 1
  m_MotionVectors: 1
  m_LightProbeUsage: 0
  m_ReflectionProbeUsage: 1
  m_Materials:
  - {fileID: 2100000, guid: 147615f44dfabc24a97bf6407d9775eb, type: 2}
  m_StaticBatchInfo:
    firstSubMesh: 0
    subMeshCount: 0
  m_StaticBatchRoot: {fileID: 0}
  m_ProbeAnchor: {fileID: 0}
  m_LightProbeVolumeOverride: {fileID: 0}
  m_ScaleInLightmap: 1
  m_PreserveUVs: 0
  m_IgnoreNormalsForChartDetection: 0
  m_ImportantGI: 0
  m_SelectedEditorRenderState: 3
  m_MinimumChartSize: 4
  m_AutoUVMaxDistance: 0.5
  m_AutoUVMaxAngle: 89
  m_LightmapParameters: {fileID: 0}
  m_SortingLayerID: 0
  m_SortingOrder: 0
--- !u!33 &822106259
MeshFilter:
  m_ObjectHideFlags: 0
  m_PrefabParentObject: {fileID: 3300000, guid: 52cf2a42de425c04dbad2326efa3be14,
    type: 2}
  m_PrefabInternal: {fileID: 293702787}
  m_GameObject: {fileID: 822106256}
  m_Mesh: {fileID: 4300000, guid: f7a11247f2d78284c9d94863ccb5ce7d, type: 3}
--- !u!4 &822106260
Transform:
  m_ObjectHideFlags: 0
  m_PrefabParentObject: {fileID: 400000, guid: 52cf2a42de425c04dbad2326efa3be14, type: 2}
  m_PrefabInternal: {fileID: 293702787}
  m_GameObject: {fileID: 822106256}
  m_LocalRotation: {x: 0, y: 0, z: 0, w: 1}
  m_LocalPosition: {x: -0.60498995, y: -2.5979, z: 0.25100005}
  m_LocalScale: {x: 0.2727576, y: 0.2727578, z: 0.2727578}
  m_Children: []
  m_Father: {fileID: 1459427703}
  m_RootOrder: 7
  m_LocalEulerAnglesHint: {x: 0, y: 0, z: 0}
--- !u!1001 &886546848
Prefab:
  m_ObjectHideFlags: 0
  serializedVersion: 2
  m_Modification:
    m_TransformParent: {fileID: 1459427703}
    m_Modifications:
    - target: {fileID: 400000, guid: a9583176f7fee624982878d84c582415, type: 2}
      propertyPath: m_LocalPosition.x
      value: -.113399982
      objectReference: {fileID: 0}
    - target: {fileID: 400000, guid: a9583176f7fee624982878d84c582415, type: 2}
      propertyPath: m_LocalPosition.y
      value: -2.60829997
      objectReference: {fileID: 0}
    - target: {fileID: 400000, guid: a9583176f7fee624982878d84c582415, type: 2}
      propertyPath: m_LocalPosition.z
      value: .364700079
      objectReference: {fileID: 0}
    - target: {fileID: 400000, guid: a9583176f7fee624982878d84c582415, type: 2}
      propertyPath: m_LocalRotation.x
      value: -.700325668
      objectReference: {fileID: 0}
    - target: {fileID: 400000, guid: a9583176f7fee624982878d84c582415, type: 2}
      propertyPath: m_LocalRotation.y
      value: .700325668
      objectReference: {fileID: 0}
    - target: {fileID: 400000, guid: a9583176f7fee624982878d84c582415, type: 2}
      propertyPath: m_LocalRotation.z
      value: .0976934582
      objectReference: {fileID: 0}
    - target: {fileID: 400000, guid: a9583176f7fee624982878d84c582415, type: 2}
      propertyPath: m_LocalRotation.w
      value: -.0976934582
      objectReference: {fileID: 0}
    - target: {fileID: 400000, guid: a9583176f7fee624982878d84c582415, type: 2}
      propertyPath: m_RootOrder
      value: 5
      objectReference: {fileID: 0}
    - target: {fileID: 400000, guid: a9583176f7fee624982878d84c582415, type: 2}
      propertyPath: m_LocalScale.z
      value: .288608044
      objectReference: {fileID: 0}
    m_RemovedComponents: []
  m_ParentPrefab: {fileID: 100100000, guid: a9583176f7fee624982878d84c582415, type: 2}
  m_RootGameObject: {fileID: 1466078416}
  m_IsPrefabParent: 0
--- !u!1 &1091559832
GameObject:
  m_ObjectHideFlags: 0
  m_PrefabParentObject: {fileID: 0}
  m_PrefabInternal: {fileID: 0}
  serializedVersion: 5
  m_Component:
  - component: {fileID: 1091559836}
  - component: {fileID: 1091559835}
  - component: {fileID: 1091559834}
  - component: {fileID: 1091559833}
  m_Layer: 0
  m_Name: Floor
  m_TagString: Untagged
  m_Icon: {fileID: 0}
  m_NavMeshLayer: 0
  m_StaticEditorFlags: 0
  m_IsActive: 1
--- !u!23 &1091559833
MeshRenderer:
  m_ObjectHideFlags: 0
  m_PrefabParentObject: {fileID: 0}
  m_PrefabInternal: {fileID: 0}
  m_GameObject: {fileID: 1091559832}
  m_Enabled: 1
  m_CastShadows: 1
  m_ReceiveShadows: 1
  m_MotionVectors: 1
  m_LightProbeUsage: 0
  m_ReflectionProbeUsage: 1
  m_Materials:
  - {fileID: 10302, guid: 0000000000000000f000000000000000, type: 0}
  m_StaticBatchInfo:
    firstSubMesh: 0
    subMeshCount: 0
  m_StaticBatchRoot: {fileID: 0}
  m_ProbeAnchor: {fileID: 0}
  m_LightProbeVolumeOverride: {fileID: 0}
  m_ScaleInLightmap: 1
  m_PreserveUVs: 0
  m_IgnoreNormalsForChartDetection: 0
  m_ImportantGI: 0
  m_SelectedEditorRenderState: 3
  m_MinimumChartSize: 4
  m_AutoUVMaxDistance: 0.5
  m_AutoUVMaxAngle: 89
  m_LightmapParameters: {fileID: 0}
  m_SortingLayerID: 0
  m_SortingOrder: 0
--- !u!64 &1091559834
MeshCollider:
  m_ObjectHideFlags: 0
  m_PrefabParentObject: {fileID: 0}
  m_PrefabInternal: {fileID: 0}
  m_GameObject: {fileID: 1091559832}
  m_Material: {fileID: 0}
  m_IsTrigger: 0
  m_Enabled: 1
  serializedVersion: 2
  m_Convex: 0
  m_InflateMesh: 0
  m_SkinWidth: 0.01
  m_Mesh: {fileID: 10209, guid: 0000000000000000e000000000000000, type: 0}
--- !u!33 &1091559835
MeshFilter:
  m_ObjectHideFlags: 0
  m_PrefabParentObject: {fileID: 0}
  m_PrefabInternal: {fileID: 0}
  m_GameObject: {fileID: 1091559832}
  m_Mesh: {fileID: 10209, guid: 0000000000000000e000000000000000, type: 0}
--- !u!4 &1091559836
Transform:
  m_ObjectHideFlags: 0
  m_PrefabParentObject: {fileID: 0}
  m_PrefabInternal: {fileID: 0}
  m_GameObject: {fileID: 1091559832}
  m_LocalRotation: {x: 0, y: 0, z: 0, w: 1}
  m_LocalPosition: {x: -2.0234249, y: -3.7255635, z: 2.7709742}
  m_LocalScale: {x: 1, y: 1, z: 1}
  m_Children: []
  m_Father: {fileID: 0}
  m_RootOrder: 2
  m_LocalEulerAnglesHint: {x: 0, y: 0, z: 0}
--- !u!1001 &1428482740
Prefab:
  m_ObjectHideFlags: 0
  serializedVersion: 2
  m_Modification:
    m_TransformParent: {fileID: 1459427703}
    m_Modifications:
    - target: {fileID: 400000, guid: ebf576c6a484cfe4583f646dc2283e95, type: 2}
      propertyPath: m_LocalPosition.x
      value: .214160025
      objectReference: {fileID: 0}
    - target: {fileID: 400000, guid: ebf576c6a484cfe4583f646dc2283e95, type: 2}
      propertyPath: m_LocalPosition.y
      value: -2.5144999
      objectReference: {fileID: 0}
    - target: {fileID: 400000, guid: ebf576c6a484cfe4583f646dc2283e95, type: 2}
      propertyPath: m_LocalPosition.z
      value: 1.51760006
      objectReference: {fileID: 0}
    - target: {fileID: 400000, guid: ebf576c6a484cfe4583f646dc2283e95, type: 2}
      propertyPath: m_LocalRotation.x
      value: 0
      objectReference: {fileID: 0}
    - target: {fileID: 400000, guid: ebf576c6a484cfe4583f646dc2283e95, type: 2}
      propertyPath: m_LocalRotation.y
      value: 0
      objectReference: {fileID: 0}
    - target: {fileID: 400000, guid: ebf576c6a484cfe4583f646dc2283e95, type: 2}
      propertyPath: m_LocalRotation.z
      value: 0
      objectReference: {fileID: 0}
    - target: {fileID: 400000, guid: ebf576c6a484cfe4583f646dc2283e95, type: 2}
      propertyPath: m_LocalRotation.w
      value: 1
      objectReference: {fileID: 0}
    - target: {fileID: 400000, guid: ebf576c6a484cfe4583f646dc2283e95, type: 2}
      propertyPath: m_RootOrder
      value: 2
      objectReference: {fileID: 0}
    m_RemovedComponents: []
  m_ParentPrefab: {fileID: 100100000, guid: ebf576c6a484cfe4583f646dc2283e95, type: 2}
  m_RootGameObject: {fileID: 1807226747}
  m_IsPrefabParent: 0
--- !u!1 &1459427702
GameObject:
  m_ObjectHideFlags: 0
  m_PrefabParentObject: {fileID: 0}
  m_PrefabInternal: {fileID: 0}
  serializedVersion: 5
  m_Component:
  - component: {fileID: 1459427703}
  m_Layer: 0
  m_Name: Items
  m_TagString: Untagged
  m_Icon: {fileID: 0}
  m_NavMeshLayer: 0
  m_StaticEditorFlags: 0
  m_IsActive: 1
--- !u!4 &1459427703
Transform:
  m_ObjectHideFlags: 0
  m_PrefabParentObject: {fileID: 0}
  m_PrefabInternal: {fileID: 0}
  m_GameObject: {fileID: 1459427702}
  m_LocalRotation: {x: 0, y: 0, z: 0, w: 1}
  m_LocalPosition: {x: -0.73681, y: -1.0404, z: 1.6636}
  m_LocalScale: {x: 1, y: 1, z: 1}
  m_Children:
  - {fileID: 683659948}
  - {fileID: 160470646}
  - {fileID: 1807226751}
  - {fileID: 1767877446}
  - {fileID: 1481573960}
  - {fileID: 1466078420}
  - {fileID: 2073273090}
  - {fileID: 822106260}
  m_Father: {fileID: 0}
  m_RootOrder: 0
  m_LocalEulerAnglesHint: {x: 0, y: 0, z: 0}
--- !u!1 &1466078416
GameObject:
  m_ObjectHideFlags: 0
  m_PrefabParentObject: {fileID: 100000, guid: a9583176f7fee624982878d84c582415, type: 2}
  m_PrefabInternal: {fileID: 886546848}
  serializedVersion: 5
  m_Component:
  - component: {fileID: 1466078420}
  - component: {fileID: 1466078419}
  - component: {fileID: 1466078418}
  - component: {fileID: 1466078417}
  m_Layer: 0
  m_Name: Pistol
  m_TagString: Untagged
  m_Icon: {fileID: 0}
  m_NavMeshLayer: 0
  m_StaticEditorFlags: 0
  m_IsActive: 1
--- !u!65 &1466078417
BoxCollider:
  m_ObjectHideFlags: 0
  m_PrefabParentObject: {fileID: 6500000, guid: a9583176f7fee624982878d84c582415,
    type: 2}
  m_PrefabInternal: {fileID: 886546848}
  m_GameObject: {fileID: 1466078416}
  m_Material: {fileID: 0}
  m_IsTrigger: 0
  m_Enabled: 1
  serializedVersion: 2
  m_Size: {x: 0.28679255, y: 1.4967749, z: 2.1183057}
  m_Center: {x: 0, y: -0.6036922, z: -1.0219858}
--- !u!23 &1466078418
MeshRenderer:
  m_ObjectHideFlags: 0
  m_PrefabParentObject: {fileID: 2300000, guid: a9583176f7fee624982878d84c582415,
    type: 2}
  m_PrefabInternal: {fileID: 886546848}
  m_GameObject: {fileID: 1466078416}
  m_Enabled: 1
  m_CastShadows: 1
  m_ReceiveShadows: 1
  m_MotionVectors: 1
  m_LightProbeUsage: 0
  m_ReflectionProbeUsage: 1
  m_Materials:
  - {fileID: 2100000, guid: 7a7b44cdc76291f40a5107370812bb29, type: 2}
  m_StaticBatchInfo:
    firstSubMesh: 0
    subMeshCount: 0
  m_StaticBatchRoot: {fileID: 0}
  m_ProbeAnchor: {fileID: 0}
  m_LightProbeVolumeOverride: {fileID: 0}
  m_ScaleInLightmap: 1
  m_PreserveUVs: 0
  m_IgnoreNormalsForChartDetection: 0
  m_ImportantGI: 0
  m_SelectedEditorRenderState: 3
  m_MinimumChartSize: 4
  m_AutoUVMaxDistance: 0.5
  m_AutoUVMaxAngle: 89
  m_LightmapParameters: {fileID: 0}
  m_SortingLayerID: 0
  m_SortingOrder: 0
--- !u!33 &1466078419
MeshFilter:
  m_ObjectHideFlags: 0
  m_PrefabParentObject: {fileID: 3300000, guid: a9583176f7fee624982878d84c582415,
    type: 2}
  m_PrefabInternal: {fileID: 886546848}
  m_GameObject: {fileID: 1466078416}
  m_Mesh: {fileID: 4300000, guid: f93b9fad76dd2094ea9cfd5d3c0e8a5a, type: 3}
--- !u!4 &1466078420
Transform:
  m_ObjectHideFlags: 0
  m_PrefabParentObject: {fileID: 400000, guid: a9583176f7fee624982878d84c582415, type: 2}
  m_PrefabInternal: {fileID: 886546848}
  m_GameObject: {fileID: 1466078416}
  m_LocalRotation: {x: -0.70032567, y: 0.70032567, z: 0.09769346, w: -0.09769346}
  m_LocalPosition: {x: -0.11339998, y: -2.6083, z: 0.36470008}
  m_LocalScale: {x: 0.288608, y: 0.28860807, z: 0.28860804}
  m_Children: []
  m_Father: {fileID: 1459427703}
  m_RootOrder: 5
  m_LocalEulerAnglesHint: {x: 0, y: 0, z: 0}
--- !u!1 &1481573956
GameObject:
  m_ObjectHideFlags: 0
  m_PrefabParentObject: {fileID: 100000, guid: ae018aef64a8af149ac31816a82819f4, type: 2}
  m_PrefabInternal: {fileID: 1559730961}
  serializedVersion: 5
  m_Component:
  - component: {fileID: 1481573960}
  - component: {fileID: 1481573959}
  - component: {fileID: 1481573958}
  - component: {fileID: 1481573957}
  m_Layer: 0
  m_Name: Jerry
  m_TagString: Untagged
  m_Icon: {fileID: 0}
  m_NavMeshLayer: 0
  m_StaticEditorFlags: 0
  m_IsActive: 1
--- !u!65 &1481573957
BoxCollider:
  m_ObjectHideFlags: 0
  m_PrefabParentObject: {fileID: 6500000, guid: ae018aef64a8af149ac31816a82819f4,
    type: 2}
  m_PrefabInternal: {fileID: 1559730961}
  m_GameObject: {fileID: 1481573956}
  m_Material: {fileID: 0}
  m_IsTrigger: 0
  m_Enabled: 1
  serializedVersion: 2
  m_Size: {x: 0.97737944, y: 0.40488446, z: 1.3447398}
  m_Center: {x: -0.000045359135, y: 0, z: 0}
--- !u!23 &1481573958
MeshRenderer:
  m_ObjectHideFlags: 0
  m_PrefabParentObject: {fileID: 2300000, guid: ae018aef64a8af149ac31816a82819f4,
    type: 2}
  m_PrefabInternal: {fileID: 1559730961}
  m_GameObject: {fileID: 1481573956}
  m_Enabled: 1
  m_CastShadows: 1
  m_ReceiveShadows: 1
  m_MotionVectors: 1
  m_LightProbeUsage: 0
  m_ReflectionProbeUsage: 1
  m_Materials:
  - {fileID: 2100000, guid: 774ac6b1cb578ad47910e0abc70b12a0, type: 2}
  m_StaticBatchInfo:
    firstSubMesh: 0
    subMeshCount: 0
  m_StaticBatchRoot: {fileID: 0}
  m_ProbeAnchor: {fileID: 0}
  m_LightProbeVolumeOverride: {fileID: 0}
  m_ScaleInLightmap: 1
  m_PreserveUVs: 0
  m_IgnoreNormalsForChartDetection: 0
  m_ImportantGI: 0
  m_SelectedEditorRenderState: 3
  m_MinimumChartSize: 4
  m_AutoUVMaxDistance: 0.5
  m_AutoUVMaxAngle: 89
  m_LightmapParameters: {fileID: 0}
  m_SortingLayerID: 0
  m_SortingOrder: 0
--- !u!33 &1481573959
MeshFilter:
  m_ObjectHideFlags: 0
  m_PrefabParentObject: {fileID: 3300000, guid: ae018aef64a8af149ac31816a82819f4,
    type: 2}
  m_PrefabInternal: {fileID: 1559730961}
  m_GameObject: {fileID: 1481573956}
  m_Mesh: {fileID: 4300000, guid: 17474995674570d46b2d1f2b7b0c4a41, type: 3}
--- !u!4 &1481573960
Transform:
  m_ObjectHideFlags: 0
  m_PrefabParentObject: {fileID: 400000, guid: ae018aef64a8af149ac31816a82819f4, type: 2}
  m_PrefabInternal: {fileID: 1559730961}
  m_GameObject: {fileID: 1481573956}
  m_LocalRotation: {x: 0.7032838, y: 0, z: 0, w: 0.71090925}
  m_LocalPosition: {x: -0.18890995, y: -2.3075, z: 1.4065001}
  m_LocalScale: {x: 0.5476395, y: 0.54763955, z: 0.5476395}
  m_Children: []
  m_Father: {fileID: 1459427703}
  m_RootOrder: 4
  m_LocalEulerAnglesHint: {x: 0, y: 0, z: 0}
--- !u!1001 &1559730961
Prefab:
  m_ObjectHideFlags: 0
  serializedVersion: 2
  m_Modification:
    m_TransformParent: {fileID: 1459427703}
    m_Modifications:
    - target: {fileID: 400000, guid: ae018aef64a8af149ac31816a82819f4, type: 2}
      propertyPath: m_LocalPosition.x
      value: -.188909948
      objectReference: {fileID: 0}
    - target: {fileID: 400000, guid: ae018aef64a8af149ac31816a82819f4, type: 2}
      propertyPath: m_LocalPosition.y
      value: -2.30749989
      objectReference: {fileID: 0}
    - target: {fileID: 400000, guid: ae018aef64a8af149ac31816a82819f4, type: 2}
      propertyPath: m_LocalPosition.z
      value: 1.4065001
      objectReference: {fileID: 0}
    - target: {fileID: 400000, guid: ae018aef64a8af149ac31816a82819f4, type: 2}
      propertyPath: m_LocalRotation.x
      value: .703283787
      objectReference: {fileID: 0}
    - target: {fileID: 400000, guid: ae018aef64a8af149ac31816a82819f4, type: 2}
      propertyPath: m_LocalRotation.y
      value: 0
      objectReference: {fileID: 0}
    - target: {fileID: 400000, guid: ae018aef64a8af149ac31816a82819f4, type: 2}
      propertyPath: m_LocalRotation.z
      value: 0
      objectReference: {fileID: 0}
    - target: {fileID: 400000, guid: ae018aef64a8af149ac31816a82819f4, type: 2}
      propertyPath: m_LocalRotation.w
      value: .710909247
      objectReference: {fileID: 0}
    - target: {fileID: 400000, guid: ae018aef64a8af149ac31816a82819f4, type: 2}
      propertyPath: m_RootOrder
      value: 4
      objectReference: {fileID: 0}
    - target: {fileID: 400000, guid: ae018aef64a8af149ac31816a82819f4, type: 2}
      propertyPath: m_LocalScale.y
      value: .547639549
      objectReference: {fileID: 0}
    m_RemovedComponents: []
  m_ParentPrefab: {fileID: 100100000, guid: ae018aef64a8af149ac31816a82819f4, type: 2}
  m_RootGameObject: {fileID: 1481573956}
  m_IsPrefabParent: 0
--- !u!1001 &1714065137
Prefab:
  m_ObjectHideFlags: 0
  serializedVersion: 2
  m_Modification:
    m_TransformParent: {fileID: 1459427703}
    m_Modifications:
    - target: {fileID: 400000, guid: b47b4cddd05440744a98c2e507be3b46, type: 2}
      propertyPath: m_LocalPosition.x
      value: .501830041
      objectReference: {fileID: 0}
    - target: {fileID: 400000, guid: b47b4cddd05440744a98c2e507be3b46, type: 2}
      propertyPath: m_LocalPosition.y
      value: -2.62820005
      objectReference: {fileID: 0}
    - target: {fileID: 400000, guid: b47b4cddd05440744a98c2e507be3b46, type: 2}
      propertyPath: m_LocalPosition.z
      value: .925199986
      objectReference: {fileID: 0}
    - target: {fileID: 400000, guid: b47b4cddd05440744a98c2e507be3b46, type: 2}
      propertyPath: m_LocalRotation.x
      value: 0
      objectReference: {fileID: 0}
    - target: {fileID: 400000, guid: b47b4cddd05440744a98c2e507be3b46, type: 2}
      propertyPath: m_LocalRotation.y
      value: .817136943
      objectReference: {fileID: 0}
    - target: {fileID: 400000, guid: b47b4cddd05440744a98c2e507be3b46, type: 2}
      propertyPath: m_LocalRotation.z
      value: 0
      objectReference: {fileID: 0}
    - target: {fileID: 400000, guid: b47b4cddd05440744a98c2e507be3b46, type: 2}
      propertyPath: m_LocalRotation.w
      value: .576443672
      objectReference: {fileID: 0}
    - target: {fileID: 400000, guid: b47b4cddd05440744a98c2e507be3b46, type: 2}
      propertyPath: m_RootOrder
      value: 3
      objectReference: {fileID: 0}
    m_RemovedComponents: []
  m_ParentPrefab: {fileID: 100100000, guid: b47b4cddd05440744a98c2e507be3b46, type: 2}
  m_RootGameObject: {fileID: 1767877442}
  m_IsPrefabParent: 0
--- !u!1001 &1733017002
Prefab:
  m_ObjectHideFlags: 0
  serializedVersion: 2
  m_Modification:
    m_TransformParent: {fileID: 1459427703}
    m_Modifications:
    - target: {fileID: 400000, guid: d44172cf417e1fa478d4f94775a5c35e, type: 2}
      propertyPath: m_LocalPosition.x
      value: .278550029
      objectReference: {fileID: 0}
    - target: {fileID: 400000, guid: d44172cf417e1fa478d4f94775a5c35e, type: 2}
      propertyPath: m_LocalPosition.y
      value: -2.62290001
      objectReference: {fileID: 0}
    - target: {fileID: 400000, guid: d44172cf417e1fa478d4f94775a5c35e, type: 2}
      propertyPath: m_LocalPosition.z
      value: .79820013
      objectReference: {fileID: 0}
    - target: {fileID: 400000, guid: d44172cf417e1fa478d4f94775a5c35e, type: 2}
      propertyPath: m_LocalRotation.x
      value: 0
      objectReference: {fileID: 0}
    - target: {fileID: 400000, guid: d44172cf417e1fa478d4f94775a5c35e, type: 2}
      propertyPath: m_LocalRotation.y
      value: 0
      objectReference: {fileID: 0}
    - target: {fileID: 400000, guid: d44172cf417e1fa478d4f94775a5c35e, type: 2}
      propertyPath: m_LocalRotation.z
      value: 0
      objectReference: {fileID: 0}
    - target: {fileID: 400000, guid: d44172cf417e1fa478d4f94775a5c35e, type: 2}
      propertyPath: m_LocalRotation.w
      value: 1
      objectReference: {fileID: 0}
    - target: {fileID: 400000, guid: d44172cf417e1fa478d4f94775a5c35e, type: 2}
      propertyPath: m_RootOrder
      value: 0
      objectReference: {fileID: 0}
    m_RemovedComponents: []
  m_ParentPrefab: {fileID: 100100000, guid: d44172cf417e1fa478d4f94775a5c35e, type: 2}
  m_RootGameObject: {fileID: 683659944}
  m_IsPrefabParent: 0
--- !u!1 &1760027463
GameObject:
  m_ObjectHideFlags: 0
  m_PrefabParentObject: {fileID: 0}
  m_PrefabInternal: {fileID: 0}
  serializedVersion: 5
  m_Component:
  - component: {fileID: 1760027465}
  - component: {fileID: 1760027464}
  m_Layer: 0
  m_Name: Point light
  m_TagString: Untagged
  m_Icon: {fileID: 0}
  m_NavMeshLayer: 0
  m_StaticEditorFlags: 0
  m_IsActive: 1
--- !u!108 &1760027464
Light:
  m_ObjectHideFlags: 0
  m_PrefabParentObject: {fileID: 0}
  m_PrefabInternal: {fileID: 0}
  m_GameObject: {fileID: 1760027463}
  m_Enabled: 1
  serializedVersion: 7
  m_Type: 2
  m_Color: {r: 1, g: 1, b: 1, a: 1}
  m_Intensity: 0.8860039
  m_Range: 10
  m_SpotAngle: 30
  m_CookieSize: 10
  m_Shadows:
    m_Type: 0
    m_Resolution: -1
    m_CustomResolution: -1
    m_Strength: 1
    m_Bias: 0.05
    m_NormalBias: 0.4
    m_NearPlane: 0.2
  m_Cookie: {fileID: 0}
  m_DrawHalo: 0
  m_Flare: {fileID: 0}
  m_RenderMode: 0
  m_CullingMask:
    serializedVersion: 2
    m_Bits: 4294967295
  m_Lightmapping: 1
  m_AreaSize: {x: 1, y: 1}
  m_BounceIntensity: 1
  m_ShadowRadius: 0
  m_ShadowAngle: 0
--- !u!4 &1760027465
Transform:
  m_ObjectHideFlags: 0
  m_PrefabParentObject: {fileID: 0}
  m_PrefabInternal: {fileID: 0}
  m_GameObject: {fileID: 1760027463}
  m_LocalRotation: {x: 0, y: 0, z: 0, w: 1}
  m_LocalPosition: {x: -0.73681, y: -1.0404, z: 1.6636}
  m_LocalScale: {x: 1, y: 1, z: 1}
  m_Children: []
  m_Father: {fileID: 0}
  m_RootOrder: 3
  m_LocalEulerAnglesHint: {x: 0, y: 0, z: 0}
--- !u!1 &1767877442
GameObject:
  m_ObjectHideFlags: 0
  m_PrefabParentObject: {fileID: 100000, guid: b47b4cddd05440744a98c2e507be3b46, type: 2}
  m_PrefabInternal: {fileID: 1714065137}
  serializedVersion: 5
  m_Component:
  - component: {fileID: 1767877446}
  - component: {fileID: 1767877445}
  - component: {fileID: 1767877444}
  - component: {fileID: 1767877443}
  m_Layer: 0
  m_Name: AmmoBox
  m_TagString: Untagged
  m_Icon: {fileID: 0}
  m_NavMeshLayer: 0
  m_StaticEditorFlags: 0
  m_IsActive: 1
--- !u!65 &1767877443
BoxCollider:
  m_ObjectHideFlags: 0
  m_PrefabParentObject: {fileID: 6500000, guid: b47b4cddd05440744a98c2e507be3b46,
    type: 2}
  m_PrefabInternal: {fileID: 1714065137}
  m_GameObject: {fileID: 1767877442}
  m_Material: {fileID: 0}
  m_IsTrigger: 0
  m_Enabled: 1
  serializedVersion: 2
  m_Size: {x: 3.3478954, y: 0.8436253, z: 2.09}
  m_Center: {x: 0, y: 0, z: 0}
--- !u!23 &1767877444
MeshRenderer:
  m_ObjectHideFlags: 0
  m_PrefabParentObject: {fileID: 2300000, guid: b47b4cddd05440744a98c2e507be3b46,
    type: 2}
  m_PrefabInternal: {fileID: 1714065137}
  m_GameObject: {fileID: 1767877442}
  m_Enabled: 1
  m_CastShadows: 1
  m_ReceiveShadows: 1
  m_MotionVectors: 1
  m_LightProbeUsage: 0
  m_ReflectionProbeUsage: 1
  m_Materials:
  - {fileID: 2100000, guid: 98d04023c5a30ba468c07b985eebf1d3, type: 2}
  m_StaticBatchInfo:
    firstSubMesh: 0
    subMeshCount: 0
  m_StaticBatchRoot: {fileID: 0}
  m_ProbeAnchor: {fileID: 0}
  m_LightProbeVolumeOverride: {fileID: 0}
  m_ScaleInLightmap: 1
  m_PreserveUVs: 0
  m_IgnoreNormalsForChartDetection: 0
  m_ImportantGI: 0
  m_SelectedEditorRenderState: 3
  m_MinimumChartSize: 4
  m_AutoUVMaxDistance: 0.5
  m_AutoUVMaxAngle: 89
  m_LightmapParameters: {fileID: 0}
  m_SortingLayerID: 0
  m_SortingOrder: 0
--- !u!33 &1767877445
MeshFilter:
  m_ObjectHideFlags: 0
  m_PrefabParentObject: {fileID: 3300000, guid: b47b4cddd05440744a98c2e507be3b46,
    type: 2}
  m_PrefabInternal: {fileID: 1714065137}
  m_GameObject: {fileID: 1767877442}
  m_Mesh: {fileID: 4300000, guid: 0583611e2b6ebc045911ef5f013b20a4, type: 3}
--- !u!4 &1767877446
Transform:
  m_ObjectHideFlags: 0
  m_PrefabParentObject: {fileID: 400000, guid: b47b4cddd05440744a98c2e507be3b46, type: 2}
  m_PrefabInternal: {fileID: 1714065137}
  m_GameObject: {fileID: 1767877442}
  m_LocalRotation: {x: 0, y: 0.81713694, z: 0, w: 0.5764437}
  m_LocalPosition: {x: 0.50183004, y: -2.6282, z: 0.9252}
  m_LocalScale: {x: 0.091875374, y: 0.09187538, z: 0.09187538}
  m_Children: []
  m_Father: {fileID: 1459427703}
  m_RootOrder: 3
  m_LocalEulerAnglesHint: {x: 0, y: 0, z: 0}
--- !u!1 &1807226747
GameObject:
  m_ObjectHideFlags: 0
  m_PrefabParentObject: {fileID: 100000, guid: ebf576c6a484cfe4583f646dc2283e95, type: 2}
  m_PrefabInternal: {fileID: 1428482740}
  serializedVersion: 5
  m_Component:
  - component: {fileID: 1807226751}
  - component: {fileID: 1807226750}
  - component: {fileID: 1807226749}
  - component: {fileID: 1807226748}
  m_Layer: 0
  m_Name: Bottle
  m_TagString: Untagged
  m_Icon: {fileID: 0}
  m_NavMeshLayer: 0
  m_StaticEditorFlags: 0
  m_IsActive: 1
--- !u!65 &1807226748
BoxCollider:
  m_ObjectHideFlags: 0
  m_PrefabParentObject: {fileID: 6500000, guid: ebf576c6a484cfe4583f646dc2283e95,
    type: 2}
  m_PrefabInternal: {fileID: 1428482740}
  m_GameObject: {fileID: 1807226747}
  m_Material: {fileID: 0}
  m_IsTrigger: 0
  m_Enabled: 1
  serializedVersion: 2
  m_Size: {x: 1, y: 2.5415888, z: 0.8660254}
  m_Center: {x: 0, y: 0.20520568, z: 0}
--- !u!23 &1807226749
MeshRenderer:
  m_ObjectHideFlags: 0
  m_PrefabParentObject: {fileID: 2300000, guid: ebf576c6a484cfe4583f646dc2283e95,
    type: 2}
  m_PrefabInternal: {fileID: 1428482740}
  m_GameObject: {fileID: 1807226747}
  m_Enabled: 1
  m_CastShadows: 1
  m_ReceiveShadows: 1
  m_MotionVectors: 1
  m_LightProbeUsage: 0
  m_ReflectionProbeUsage: 1
  m_Materials:
  - {fileID: 2100000, guid: 5e17c4e5e3bdfc444b8718e4dd39e945, type: 2}
  m_StaticBatchInfo:
    firstSubMesh: 0
    subMeshCount: 0
  m_StaticBatchRoot: {fileID: 0}
  m_ProbeAnchor: {fileID: 0}
  m_LightProbeVolumeOverride: {fileID: 0}
  m_ScaleInLightmap: 1
  m_PreserveUVs: 0
  m_IgnoreNormalsForChartDetection: 0
  m_ImportantGI: 0
  m_SelectedEditorRenderState: 3
  m_MinimumChartSize: 4
  m_AutoUVMaxDistance: 0.5
  m_AutoUVMaxAngle: 89
  m_LightmapParameters: {fileID: 0}
  m_SortingLayerID: 0
  m_SortingOrder: 0
--- !u!33 &1807226750
MeshFilter:
  m_ObjectHideFlags: 0
  m_PrefabParentObject: {fileID: 3300000, guid: ebf576c6a484cfe4583f646dc2283e95,
    type: 2}
  m_PrefabInternal: {fileID: 1428482740}
  m_GameObject: {fileID: 1807226747}
  m_Mesh: {fileID: 4300000, guid: 22cfc053a7f66734dab1ab2fb49db26e, type: 3}
--- !u!4 &1807226751
Transform:
  m_ObjectHideFlags: 0
  m_PrefabParentObject: {fileID: 400000, guid: ebf576c6a484cfe4583f646dc2283e95, type: 2}
  m_PrefabInternal: {fileID: 1428482740}
  m_GameObject: {fileID: 1807226747}
  m_LocalRotation: {x: 0, y: 0, z: 0, w: 1}
  m_LocalPosition: {x: 0.21416003, y: -2.5145, z: 1.5176}
  m_LocalScale: {x: 0.156775, y: 0.15677497, z: 0.15677497}
  m_Children: []
  m_Father: {fileID: 1459427703}
  m_RootOrder: 2
  m_LocalEulerAnglesHint: {x: 0, y: 0, z: 0}
--- !u!1001 &2000699286
Prefab:
  m_ObjectHideFlags: 0
  serializedVersion: 2
  m_Modification:
    m_TransformParent: {fileID: 1459427703}
    m_Modifications:
    - target: {fileID: 400000, guid: ed9fec1f563299440a87ef1950fd5cca, type: 2}
      propertyPath: m_LocalPosition.x
      value: -.143259943
      objectReference: {fileID: 0}
    - target: {fileID: 400000, guid: ed9fec1f563299440a87ef1950fd5cca, type: 2}
      propertyPath: m_LocalPosition.y
      value: -2.63619995
      objectReference: {fileID: 0}
    - target: {fileID: 400000, guid: ed9fec1f563299440a87ef1950fd5cca, type: 2}
      propertyPath: m_LocalPosition.z
      value: .183200002
      objectReference: {fileID: 0}
    - target: {fileID: 400000, guid: ed9fec1f563299440a87ef1950fd5cca, type: 2}
      propertyPath: m_LocalRotation.x
      value: -.253926188
      objectReference: {fileID: 0}
    - target: {fileID: 400000, guid: ed9fec1f563299440a87ef1950fd5cca, type: 2}
      propertyPath: m_LocalRotation.y
      value: .659940541
      objectReference: {fileID: 0}
    - target: {fileID: 400000, guid: ed9fec1f563299440a87ef1950fd5cca, type: 2}
      propertyPath: m_LocalRotation.z
      value: .659940541
      objectReference: {fileID: 0}
    - target: {fileID: 400000, guid: ed9fec1f563299440a87ef1950fd5cca, type: 2}
      propertyPath: m_LocalRotation.w
      value: .253926188
      objectReference: {fileID: 0}
    - target: {fileID: 400000, guid: ed9fec1f563299440a87ef1950fd5cca, type: 2}
      propertyPath: m_RootOrder
      value: 1
      objectReference: {fileID: 0}
    - target: {fileID: 400000, guid: ed9fec1f563299440a87ef1950fd5cca, type: 2}
      propertyPath: m_LocalScale.x
      value: .0880737454
      objectReference: {fileID: 0}
    - target: {fileID: 400000, guid: ed9fec1f563299440a87ef1950fd5cca, type: 2}
      propertyPath: m_LocalScale.y
      value: .0880737454
      objectReference: {fileID: 0}
    m_RemovedComponents: []
  m_ParentPrefab: {fileID: 100100000, guid: ed9fec1f563299440a87ef1950fd5cca, type: 2}
  m_RootGameObject: {fileID: 160470642}
  m_IsPrefabParent: 0
--- !u!1 &2073273086
GameObject:
  m_ObjectHideFlags: 0
  m_PrefabParentObject: {fileID: 100000, guid: bfb0c990155e78140881fa17aa905626, type: 2}
  m_PrefabInternal: {fileID: 670056561}
  serializedVersion: 5
  m_Component:
  - component: {fileID: 2073273090}
  - component: {fileID: 2073273089}
  - component: {fileID: 2073273088}
  - component: {fileID: 2073273087}
  m_Layer: 0
  m_Name: BaseballBat
  m_TagString: Untagged
  m_Icon: {fileID: 0}
  m_NavMeshLayer: 0
  m_StaticEditorFlags: 0
  m_IsActive: 1
--- !u!65 &2073273087
BoxCollider:
  m_ObjectHideFlags: 0
  m_PrefabParentObject: {fileID: 6500000, guid: bfb0c990155e78140881fa17aa905626,
    type: 2}
  m_PrefabInternal: {fileID: 670056561}
  m_GameObject: {fileID: 2073273086}
  m_Material: {fileID: 0}
  m_IsTrigger: 0
  m_Enabled: 1
  serializedVersion: 2
  m_Size: {x: 0.26, y: 2.2307408, z: 0.26}
  m_Center: {x: 0, y: -0.0063530207, z: 0}
--- !u!23 &2073273088
MeshRenderer:
  m_ObjectHideFlags: 0
  m_PrefabParentObject: {fileID: 2300000, guid: bfb0c990155e78140881fa17aa905626,
    type: 2}
  m_PrefabInternal: {fileID: 670056561}
  m_GameObject: {fileID: 2073273086}
  m_Enabled: 1
  m_CastShadows: 1
  m_ReceiveShadows: 1
  m_MotionVectors: 1
  m_LightProbeUsage: 0
  m_ReflectionProbeUsage: 1
  m_Materials:
  - {fileID: 2100000, guid: 06c4470073258ef45bcb6090ecfdfe10, type: 2}
  m_StaticBatchInfo:
    firstSubMesh: 0
    subMeshCount: 0
  m_StaticBatchRoot: {fileID: 0}
  m_ProbeAnchor: {fileID: 0}
  m_LightProbeVolumeOverride: {fileID: 0}
  m_ScaleInLightmap: 1
  m_PreserveUVs: 0
  m_IgnoreNormalsForChartDetection: 0
  m_ImportantGI: 0
  m_SelectedEditorRenderState: 3
  m_MinimumChartSize: 4
  m_AutoUVMaxDistance: 0.5
  m_AutoUVMaxAngle: 89
  m_LightmapParameters: {fileID: 0}
  m_SortingLayerID: 0
  m_SortingOrder: 0
--- !u!33 &2073273089
MeshFilter:
  m_ObjectHideFlags: 0
  m_PrefabParentObject: {fileID: 3300000, guid: bfb0c990155e78140881fa17aa905626,
    type: 2}
  m_PrefabInternal: {fileID: 670056561}
  m_GameObject: {fileID: 2073273086}
  m_Mesh: {fileID: 4300000, guid: 17e1740e77d9f654ab8649c0adce0c3a, type: 3}
--- !u!4 &2073273090
Transform:
  m_ObjectHideFlags: 0
  m_PrefabParentObject: {fileID: 400000, guid: bfb0c990155e78140881fa17aa905626, type: 2}
  m_PrefabInternal: {fileID: 670056561}
  m_GameObject: {fileID: 2073273086}
  m_LocalRotation: {x: -0.13752419, y: -0.13831532, z: 0.6915339, w: 0.695512}
  m_LocalPosition: {x: -0.15026999, y: -2.6147, z: 1.0716}
  m_LocalScale: {x: 0.48487264, y: 0.48487252, z: 0.48487258}
  m_Children: []
  m_Father: {fileID: 1459427703}
  m_RootOrder: 6
  m_LocalEulerAnglesHint: {x: 0, y: 0, z: 0}
