# Blender v2.78 (sub 0) OBJ File: ''
# www.blender.org
mtllib protocrystal.mtl
o Cube_Cube.001
v -0.849037 -0.945779 1.015330
v -0.849037 1.054221 1.015330
v -1.000000 -1.000000 -1.000000
v -1.000000 1.000000 -1.000000
v 0.984744 -1.030109 1.101311
v 0.984744 0.969891 1.101311
v 1.196640 -0.930419 -0.647322
v 1.196640 1.069581 -0.647322
v -0.394851 1.905410 0.467566
v 0.410376 2.100081 -0.198482
v -0.611925 1.559943 -0.606168
vt 0.3658 0.0097
vt 0.6981 0.0000
vt 0.6981 0.3078
vt 0.3658 0.3175
vt 0.3658 0.5029
vt 0.0000 0.4909
vt 0.0000 0.1817
vt 0.3658 0.1937
vt 0.9878 0.9841
vt 0.6981 1.0000
vt 0.6981 0.6805
vt 0.9878 0.6646
vt 0.6981 0.0000
vt 1.0000 0.0135
vt 1.0000 0.3329
vt 0.6981 0.3195
vt 0.0000 0.5029
vt 0.3259 0.5655
vt 0.3039 0.8580
vt 0.0140 0.8580
vt 0.1173 0.0000
vt 0.2933 0.0938
vt 0.8025 0.5000
vt 0.9296 0.4689
vt 0.6297 0.4096
vt 0.5528 0.5353
vt 0.4513 0.4693
vt 0.8989 0.5000
vn 0.9972 0.0000 -0.0747
vn -0.1585 0.0000 0.9874
vn -0.9927 0.0000 -0.1203
vn 0.0468 0.0000 -0.9989
vn 0.0023 0.9999 0.0121
vn -0.1123 -0.4870 0.8661
vn -0.2736 -0.7824 -0.5594
vn 0.3901 -0.8966 0.2096
vn 0.0141 -0.5464 -0.8374
vn 0.8564 -0.5150 -0.0354
vn -0.8148 -0.5647 -0.1309
usemtl None
s off
f 1/1/1 3/2/1 4/3/1 2/4/1
f 3/5/2 7/6/2 8/7/2 4/8/2
f 7/9/3 5/10/3 6/11/3 8/12/3
f 5/13/4 1/14/4 2/15/4 6/16/4
f 3/17/5 1/18/5 5/19/5 7/20/5
f 8/7/6 10/21/6 11/22/6 4/8/6
f 10/23/7 6/16/7 9/24/7
f 11/25/8 10/26/8 9/27/8
f 2/15/9 9/24/9 6/16/9
f 4/3/10 11/25/10 9/27/10 2/4/10
f 8/12/11 6/11/11 10/28/11
